…
``` r
  final_new = final %>%
  mutate(
    prop = map2(.x = unsolved,               
                .y = total, 
                ~prop.test(x = .x, n = .y)),
    tidy = map(.x = prop,           
               ~broom::tidy(.x))) %>%             
  unnest(tidy) %>%                                       
  select(city_state, estimate, conf.low, conf.high)
  
final_new
```

    ## # A tibble: 50 × 4
    ##    city_state      estimate conf.low conf.high
    ##    <chr>              <dbl>    <dbl>     <dbl>
    ##  1 Albuquerque, NM    0.386    0.337     0.438
    ##  2 Atlanta, GA        0.383    0.353     0.415
    ##  3 Baltimore, MD      0.646    0.628     0.663
    ##  4 Baton Rouge, LA    0.462    0.414     0.511
    ##  5 Birmingham, AL     0.434    0.399     0.469
    ##  6 Boston, MA         0.505    0.465     0.545
    ##  7 Buffalo, NY        0.612    0.569     0.654
    ##  8 Charlotte, NC      0.300    0.266     0.336
    ##  9 Chicago, IL        0.736    0.724     0.747
    ## 10 Cincinnati, OH     0.445    0.408     0.483
    ## # … with 40 more rows
…
# Problem 3

-   Insert the sample chunk and take a look at the dataset

``` r
set.seed(10)

iris_with_missing = iris %>% 
  map_df(~replace(.x, sample(1:150, 20), NA)) %>%
  mutate(Species = as.character(Species)) 

iris_with_missing
```

    ## # A tibble: 150 × 5
    ##    Sepal.Length Sepal.Width Petal.Length Petal.Width Species
    ##           <dbl>       <dbl>        <dbl>       <dbl> <chr>  
    ##  1          5.1         3.5          1.4         0.2 setosa 
    ##  2          4.9         3            1.4         0.2 setosa 
    ##  3          4.7         3.2          1.3         0.2 setosa 
    ##  4          4.6         3.1          1.5        NA   setosa 
    ##  5          5           3.6          1.4         0.2 setosa 
    ##  6          5.4         3.9          1.7         0.4 setosa 
    ##  7         NA           3.4          1.4         0.3 setosa 
    ##  8          5           3.4          1.5         0.2 setosa 
    ##  9          4.4         2.9          1.4         0.2 setosa 
    ## 10          4.9         3.1         NA           0.1 setosa 
    ## # … with 140 more rows
…
-   Applying function to the final data set

``` r
iris_final =
  iris_new %>%
  mutate(sepal_length = map(pull(iris_new,sepal_length),filled),
         species = map(pull(iris_new,species),filled))

iris_final
```

    ## # A tibble: 150 × 5
    ##    sepal_length sepal_width petal_length petal_width species  
    ##    <list>             <dbl>        <dbl>       <dbl> <list>   
    ##  1 <dbl [1]>            3.5          1.4         0.2 <chr [1]>
    ##  2 <dbl [1]>            3            1.4         0.2 <chr [1]>
    ##  3 <dbl [1]>            3.2          1.3         0.2 <chr [1]>
    ##  4 <dbl [1]>            3.1          1.5        NA   <chr [1]>
    ##  5 <dbl [1]>            3.6          1.4         0.2 <chr [1]>
    ##  6 <dbl [1]>            3.9          1.7         0.4 <chr [1]>
    ##  7 <dbl [1]>            3.4          1.4         0.3 <chr [1]>
    ##  8 <dbl [1]>            3.4          1.5         0.2 <chr [1]>
    ##  9 <dbl [1]>            2.9          1.4         0.2 <chr [1]>
    ## 10 <dbl [1]>            3.1         NA           0.1 <chr [1]>
    ## # … with 140 more rows
